<?xml version="1.0" encoding="UTF-8" standalone="no"?>
<!-- Created with Inkscape (http://www.inkscape.org/) -->

<svg
   width="48"
   height="48"
   viewBox="0 0 12.7 12.7"
   version="1.1"
   id="svg5"
   inkscape:version="1.2.1 (9c6d41e410, 2022-07-14, custom)"
   sodipodi:docname="logo.svg"
   inkscape:export-filename="logo.png"
   inkscape:export-xdpi="768"
   inkscape:export-ydpi="768"
   xmlns:inkscape="http://www.inkscape.org/namespaces/inkscape"
   xmlns:sodipodi="http://sodipodi.sourceforge.net/DTD/sodipodi-0.dtd"
   xmlns="http://www.w3.org/2000/svg"
   xmlns:svg="http://www.w3.org/2000/svg">
  <sodipodi:namedview
     id="namedview7"
     pagecolor="#ffffff"
     bordercolor="#666666"
     borderopacity="1.0"
     inkscape:pageshadow="2"
     inkscape:pageopacity="0.0"
     inkscape:pagecheckerboard="0"
     inkscape:document-units="px"
     showgrid="false"
     units="px"
     width="32px"
     inkscape:zoom="10.248373"
     inkscape:cx="14.587681"
     inkscape:cy="23.759869"
     inkscape:window-width="1920"
     inkscape:window-height="1009"
     inkscape:window-x="0"
     inkscape:window-y="0"
     inkscape:window-maximized="1"
     inkscape:current-layer="layer1"
     inkscape:showpageshadow="2"
     inkscape:deskcolor="#d1d1d1" />
  <defs
     id="defs2">
    <filter
       style="color-interpolation-filters:sRGB;"
       inkscape:label="Drop Shadow"
       id="filter1345"
       x="-0.2314438"
       y="-0.2314438"
       width="1.4628876"
       height="1.4628876">
      <feFlood
         flood-opacity="0.498039"
         flood-color="rgb(0,0,0)"
         result="flood"
         id="feFlood1335" />
      <feComposite
         in="flood"
         in2="SourceGraphic"
         operator="in"
         result="composite1"
         id="feComposite1337" />
      <feGaussianBlur
         in="composite1"
         stdDeviation="0.5"
         result="blur"
         id="feGaussianBlur1339" />
      <feOffset
         dx="0"
         dy="0"
         result="offset"
         id="feOffset1341" />
      <feComposite
         in="SourceGraphic"
         in2="offset"
         operator="over"
         result="composite2"
         id="feComposite1343" />
    </filter>
    <filter
       style="color-interpolation-filters:sRGB;"
       inkscape:label="Drop Shadow"
       id="filter1389"
       x="-0.19034556"
       y="-0.19034556"
       width="1.3806911"
       height="1.3806911">
      <feFlood
         flood-opacity="0.498039"
         flood-color="rgb(0,0,0)"
         result="flood"
         id="feFlood1379" />
      <feComposite
         in="flood"
         in2="SourceGraphic"
         operator="in"
         result="composite1"
         id="feComposite1381" />
      <feGaussianBlur
         in="composite1"
         stdDeviation="0.5"
         result="blur"
         id="feGaussianBlur1383" />
      <feOffset
         dx="0"
         dy="0"
         result="offset"
         id="feOffset1385" />
      <feComposite
         in="SourceGraphic"
         in2="offset"
         operator="over"
         result="composite2"
         id="feComposite1387" />
    </filter>
  </defs>
  <g
     inkscape:label="Calque 1"
     inkscape:groupmode="layer"
     id="layer1">
    <g
       id="g1433"
       transform="matrix(0.88939861,0,0,0.88939861,0.96173083,0.76136943)">
      <path
         style="fill:#bf360c;fill-opacity:1;stroke:#ffffff;stroke-width:0.661458;stroke-miterlimit:4;stroke-dasharray:none;stroke-opacity:1;filter:url(#filter1389)"
         id="path6342"
         sodipodi:type="arc"
         sodipodi:cx="-9.2997351"
         sodipodi:cy="1.9117668"
         sodipodi:rx="8.0418425"
         sodipodi:ry="8.0418425"
         sodipodi:start="0"
         sodipodi:end="1.5707963"
         sodipodi:arc-type="slice"
         transform="matrix(-0.25881634,-0.96592655,0.96592512,-0.25882168,0,0)"
         d="M -1.2578926,1.9117668 A 8.0418425,8.0418425 0 0 1 -9.2997351,9.9536092 V 1.9117668 Z" />
      <circle
         style="fill:#ff6f00;fill-opacity:1;stroke:#ffffff;stroke-width:0.88787;stroke-miterlimit:4;stroke-dasharray:none;stroke-opacity:1;filter:url(#filter1345)"
         id="path846"
         cx="7.9277072"
         cy="5.4758525"
         r="3.5514777"
         transform="rotate(30.000002)" />
      <g
         aria-label="G"
         id="text6138"
         style="font-size:6.28963px;line-height:1.25;fill:#ffffff;stroke-width:0.157241"
         transform="translate(-0.25030657,-0.1242247)">
        <path
           d="m 4.4139773,10.739429 c 0.5882453,0 1.0909275,-0.176474 1.5080469,-0.529421 V 8.488054 H 4.2535468 v 0.7807619 h 0.7861095 v 0.5615067 c -0.1283444,0.06952 -0.3048179,0.1069541 -0.5133775,0.1069541 -0.6684606,0 -1.0855799,-0.4331628 -1.0855799,-1.1390571 0,-0.6898511 0.4010763,-1.0588414 1.1550998,-1.0588414 0.3155132,0 0.6845035,0.058825 0.9304969,0.1443875 L 5.7829844,7.1564808 C 5.4674711,7.0067456 5.0450041,6.9211826 4.622537,6.9211826 c -1.3155302,0 -2.1551166,0.7914573 -2.1551166,1.9519047 0,1.1176659 0.7807619,1.8663417 1.9465569,1.8663417 z"
           style="font-weight:800;font-family:Cantarell;-inkscape-font-specification:'Cantarell Ultra-Bold';stroke-width:0.133692"
           id="path9331" />
      </g>
    </g>
  </g>
</svg>
